{
    "photos": {
        "page": 1,
        "pages": 10727,
        "perpage": 10,
        "total": 107263,
        "photo": [
            {
                "id": "51718359586",
                "secret": "03e906568e",
                "server": "65535",
                "farm": 66,
                "title": "Climbing Nightshade - Solanum  5114",
            },
            {
                "id":"51716967076",
                "secret":"f5af25ecd2",
                "server":"65535",
                "farm":66,
                "title":"IMG_0516  This area's restaurants specialize in serving guinea pigs",
            },
            {
                "id":"51717610794",
                "secret":"e605a2d6a9",
                "server":"65535",
                "farm":66,
                "title":"IMG_0597  A type of wheat used to fatten guinea pigs",
            },
            {
                "id":"51715199527",
                "secret":"82c14a30b9",
                "server":"65535",
                "farm":66,
                "title":"The little guinea pig :-)",
                
            },
            {
                "id":"51714830881",
                "secret":"cd7124c448",
                "server":"65535",
                "farm":66,
                "title":"nicky (1)",
            },
            {
                "id":"51714598905",
                "secret":"0f1e407bf4",
                "server":"65535",
                "farm":66,
                "title":"333\/365 - brokenhearted","ispublic":1,
            },
            {
                "id":"51719225603",
                "secret":"ed20dc2fc1",
                "server":"65535",
                "farm":66,
                "title":"Download [PDF] Hello, Universe",
            },
            {
                "id":"51716319455",
                "secret":"f72b651f3e",
                "server":"65535",
                "farm":66,
                "title":"Guinea Pigs",
            },
            {
                "id":"51715451296",
                "secret":"b2342d5a60",
                "server":"65535",
                "farm":66,
                "title":"Guinea Pigs",
            },
            {
                "id":"51715708418",
                "secret":"6f7050b870",
                "server":"65535","farm":66,
                "title":"Hairless Guinea Pig",
            }
        ]
        
    },
    "stat":"ok"
}
